{
    "type": "application",
    "source-directories": [
        "."
    ],
    "elm-version": "0.19.0",
    "dependencies": {
        "direct": {
            "NoRedInk/elm-json-decode-pipeline": "1.0.0",
            "avh4/elm-color": "1.0.0",
            "bartavelle/json-helpers": "2.0.2",
            "billstclair/elm-port-funnel": "1.1.4",
            "billstclair/elm-websocket-client": "4.0.0",
            "elm/browser": "1.0.1",
            "elm/core": "1.0.0",
            "elm/html": "1.0.0",
            "elm/json": "1.1.2",
            "elm/svg": "1.0.1",
            "elm/url": "1.0.0",
            "elm-community/graph": "6.0.0",
            "gampleman/elm-visualization": "2.0.0",
            "mdgriffith/elm-ui": "1.1.0",
            "timjs/elm-collage": "2.0.1"
        },
        "indirect": {
            "Janiczek/cmd-extra": "1.1.0",
            "avh4/elm-fifo": "1.0.4",
            "elm/parser": "1.1.0",
            "elm/time": "1.0.0",
            "elm/virtual-dom": "1.0.2",
            "elm-community/basics-extra": "4.0.0",
            "elm-community/intdict": "3.0.0",
            "elm-community/list-extra": "8.1.0",
            "folkertdev/elm-deque": "3.0.0",
            "folkertdev/one-true-path-experiment": "4.0.2",
            "folkertdev/svg-path-lowlevel": "3.0.0",
            "ianmackenzie/elm-float-extra": "1.0.1",
            "ianmackenzie/elm-geometry": "1.2.1",
            "ianmackenzie/elm-interval": "1.0.1",
            "ianmackenzie/elm-triangular-mesh": "1.0.2",
            "justinmimbs/date": "3.1.2",
            "justinmimbs/time-extra": "1.1.0",
            "ryannhg/date-format": "2.3.0"
        }
    },
    "test-dependencies": {
        "direct": {},
        "indirect": {}
    }
}